{
  "id": "coloradoencyclopedia",
  "type": "metadataOnly",
  "license": "https://coloradoencyclopedia.org/copyright",
  "baseURL": "https://coloradoencyclopedia.org",
  "seedURLs": [
    "https://coloradoencyclopedia.org/people",
    "https://coloradoencyclopedia.org/places",
    "https://coloradoencyclopedia.org/events",
    "https://coloradoencyclopedia.org/things"
  ],
  "requiredURLs": ["/article/"],
  "titleSelector": "#page-title",
  "contentSelector": ".node-encyclopedia-article"
}
