{
  "id": "encusindustries",
  "type": "metadataOnly",
  "license": "© 2023 Advameg, Inc.",
  "baseURL": "https://www.referenceforbusiness.com/industries/",
  "titleSelector": ".article_container h1:first-child",
  "contentSelector": ".article_container > p",
  "isArticleCheckSelector": ".article_container",
  "titleToTitleCase": true
}