{
  "id": "historylink",
  "type": "standard",
  "baseURL": "https://historylink.org/",
  "license": "https://historylink.org/File/20001",
  "seedURLs": [],
  "excludeBaseURL": true,
  "excludeSeedURLs": true,
  "requiredInURL": "",
  "requiredURLs": [],
  "ignoredURLs": [],
  "titleSelector": ".title",
  "contentSelector": ".article > article",
  "isArticleCheckSelector": ".article > article"
}
