{
  "id": "iep",
  "type": "metadataOnly",
  "license": "https://iep.utm.edu/home/copyright/",
  "baseURL": "https://iep.utm.edu",
  "seedURLs": ["/<a-z>"],
  "ignoredURLs": ["/home/", "/eds/", "/submit/", "/volunteer/", "/feed/", "/category/"],
  "titleSelector": ".entry-content h1:first-child",
  "contentSelector": ".entry-content",
  "isArticleCheckSelector": "#content > article.type-post"
}