{
  "id": "maineanencyclopedia",
  "type": "metadataOnly",
  "baseURL": "https://maineanencyclopedia.com/",
  "license": "https://maineanencyclopedia.com/help-contact/",
  "seedURLs": ["https://maineanencyclopedia.com/tag/<a-z>/"],
  "titleSelector": ".entry-title",
  "contentSelector": ".entry-content",
  "isArticleCheckSelector": ".entry-content",
  "toRemoveSelector": ".wp-caption-text, a[href*=\"facebook.com\"], strong:contains(Additional resources)"
}
