{
  "id": "pcmag",
  "type": "metadataOnly",
  "license": "THIS DEFINITION IS FOR PERSONAL USE ONLY. All other reproduction requires permission. Copyright (C) 1981-2023. The Computer Language Co Inc. All rights reserved.",
  "baseURL": "https://www.pcmag.com/encyclopedia",
  "seedURLs": ["/<a-z+0>"],
  "requiredURLs": ["/term/"],
  "titleSelector": "#content-header",
  "contentSelector": ".encyclopedia-definition",
  "isArticleCheckSelector": ".encyclopedia-definition p"
}